wtlCPU7.1/test.vcd
$date
	Thu Jan 11 13:52:38 2018
$end
$version
	Icarus Verilog
$end
$timescale
	1ps
$end
$scope module openmips_min_sopc_tb $end
$var reg 1 ! CLOCK_50 $end
$var reg 1 " rst $end
$scope module openmips_min_sopc0 $end
$var wire 1 # clk $end
$var wire 32 $ inst [31:0] $end
$var wire 32 % inst_addr [31:0] $end
$var wire 32 & mem_addr_i [31:0] $end
$var wire 1 ' mem_ce_i $end
$var wire 32 ( mem_data_i [31:0] $end
$var wire 32 ) mem_data_o [31:0] $end
$var wire 1 * mem_data_ready $end
$var wire 4 + mem_sel_i [3:0] $end
$var wire 1 , mem_we_i $end
$var wire 1 - rom_ce $end
$var wire 1 . rst $end
$scope module openmips0 $end
$var wire 32 / branch_target_address [31:0] $end
$var wire 32 0 cache_addr_o [31:0] $end
$var wire 1 1 cache_ce_o $end
$var wire 32 2 cache_data_i [31:0] $end
$var wire 32 3 cache_data_o [31:0] $end
$var wire 4 4 cache_sel_o [3:0] $end
$var wire 1 5 cache_we_o $end
$var wire 1 # clk $end
$var wire 8 6 ex_aluop_i [7:0] $end
$var wire 8 7 ex_aluop_o [7:0] $end
$var wire 3 8 ex_alusel_i [2:0] $end
$var wire 32 9 ex_inst_i [31:0] $end
$var wire 1 : ex_is_in_delayslot_i $end
$var wire 32 ; ex_link_address_i [31:0] $end
$var wire 32 < ex_mem_addr_o [31:0] $end
$var wire 32 = ex_reg1_i [31:0] $end
$var wire 32 > ex_reg2_i [31:0] $end
$var wire 32 ? ex_reg2_o [31:0] $end
$var wire 5 @ ex_wd_i [4:0] $end
$var wire 5 A ex_wd_o [4:0] $end
$var wire 32 B ex_wdata_o [31:0] $end
$var wire 1 C ex_wreg_i $end
$var wire 1 D ex_wreg_o $end
$var wire 8 E id_aluop_o [7:0] $end
$var wire 3 F id_alusel_o [2:0] $end
$var wire 1 G id_branch_flag_o $end
$var wire 32 H id_inst_i [31:0] $end
$var wire 32 I id_inst_o [31:0] $end
$var wire 1 J id_is_in_delayslot_o $end
$var wire 32 K id_link_address_o [31:0] $end
$var wire 32 L id_pc_i [31:0] $end
$var wire 32 M id_reg1_o [31:0] $end
$var wire 32 N id_reg2_o [31:0] $end
$var wire 5 O id_wd_o [4:0] $end
$var wire 1 P id_wreg_o $end
$var wire 12 Q immer [11:0] $end
$var wire 12 R immer1 [11:0] $end
$var wire 1 S is_in_delayslot_i $end
$var wire 8 T mem_aluop_i [7:0] $end
$var wire 32 U mem_mem_addr_i [31:0] $end
$var wire 32 V mem_reg2_i [31:0] $end
$var wire 5 W mem_wd_i [4:0] $end
$var wire 5 X mem_wd_o [4:0] $end
$var wire 32 Y mem_wdata_i [31:0] $end
$var wire 32 Z mem_wdata_o [31:0] $end
$var wire 1 [ mem_wreg_i $end
$var wire 1 \ mem_wreg_o $end
$var wire 1 ] next_inst_in_delayslot_o $end
$var wire 32 ^ pc [31:0] $end
$var wire 32 _ ram_addr_o [31:0] $end
$var wire 1 ' ram_ce_o $end
$var wire 32 ` ram_data_i [31:0] $end
$var wire 32 a ram_data_o [31:0] $end
$var wire 1 * ram_data_ready $end
$var wire 4 b ram_sel_o [3:0] $end
$var wire 1 , ram_we_o $end
$var wire 5 c reg1_addr [4:0] $end
$var wire 32 d reg1_data [31:0] $end
$var wire 1 e reg1_read $end
$var wire 5 f reg2_addr [4:0] $end
$var wire 32 g reg2_data [31:0] $end
$var wire 1 h reg2_read $end
$var wire 32 i rom_addr_o [31:0] $end
$var wire 1 - rom_ce_o $end
$var wire 32 j rom_data_i [31:0] $end
$var wire 1 . rst $end
$var wire 6 k stall [5:0] $end
$var wire 1 l stallreq_from_cache $end
$var wire 1 m stallreq_from_ex $end
$var wire 1 n stallreq_from_id $end
$var wire 5 o wb_wd_i [4:0] $end
$var wire 32 p wb_wdata_i [31:0] $end
$var wire 1 q wb_wreg_i $end
$scope module pc_reg0 $end
$var wire 1 G branch_flag_i $end
$var wire 32 r branch_target_address_i [31:0] $end
$var wire 1 # clk $end
$var wire 1 . rst $end
$var wire 6 s stall [5:0] $end
$var reg 1 t ce $end
$var reg 32 u pc [31:0] $end
$upscope $end
$scope module if_id0 $end
$var wire 1 # clk $end
$var wire 32 v if_inst [31:0] $end
$var wire 32 w if_pc [31:0] $end
$var wire 1 . rst $end
$var wire 6 x stall [5:0] $end
$var reg 32 y id_inst [31:0] $end
$var reg 32 z id_pc [31:0] $end
$upscope $end
$scope module id0 $end
$var wire 8 { ex_aluop_i [7:0] $end
$var wire 5 | ex_wd_i [4:0] $end
$var wire 32 } ex_wdata_i [31:0] $end
$var wire 1 D ex_wreg_i $end
$var wire 32 ~ imm_sll2_signedext [31:0] $end
$var wire 32 !" inst_i [31:0] $end
$var wire 32 "" inst_o [31:0] $end
$var wire 1 S is_in_delayslot_i $end
$var wire 5 #" mem_wd_i [4:0] $end
$var wire 32 $" mem_wdata_i [31:0] $end
$var wire 1 \ mem_wreg_i $end
$var wire 7 %" op1 [6:0] $end
$var wire 5 &" op2 [4:0] $end
$var wire 3 '" op3 [2:0] $end
$var wire 5 (" op4 [4:0] $end
$var wire 5 )" op5 [4:0] $end
$var wire 7 *" op6 [6:0] $end
$var wire 32 +" pc_i [31:0] $end
$var wire 32 ," pc_plus_4 [31:0] $end
$var wire 32 -" pc_plus_8 [31:0] $end
$var wire 1 ." pre_inst_is_load $end
$var wire 32 /" reg1_data_i [31:0] $end
$var wire 32 0" reg2_data_i [31:0] $end
$var wire 1 . rst $end
$var wire 1 n stallreq $end
$var reg 8 1" aluop_o [7:0] $end
$var reg 3 2" alusel_o [2:0] $end
$var reg 1 3" branch_flag_o $end
$var reg 32 4" branch_target_address_o [31:0] $end
$var reg 32 5" imm [31:0] $end
$var reg 12 6" immer [11:0] $end
$var reg 1 7" instvalid $end
$var reg 1 8" is_in_delayslot_o $end
$var reg 32 9" link_addr_o [31:0] $end
$var reg 1 :" next_inst_in_delayslot_o $end
$var reg 5 ;" reg1_addr_o [4:0] $end
$var reg 32 <" reg1_o [31:0] $end
$var reg 1 =" reg1_read_o $end
$var reg 5 >" reg2_addr_o [4:0] $end
$var reg 32 ?" reg2_o [31:0] $end
$var reg 1 @" reg2_read_o $end
$var reg 32 A" result_sum [31:0] $end
$var reg 1 B" stallreq_for_reg1_loadrelate $end
$var reg 1 C" stallreq_for_reg2_loadrelate $end
$var reg 5 D" wd_o [4:0] $end
$var reg 1 E" wreg_o $end
$upscope $end
$scope module regfile1 $end
$var wire 1 # clk $end
$var wire 5 F" raddr1 [4:0] $end
$var wire 5 G" raddr2 [4:0] $end
$var wire 1 e re1 $end
$var wire 1 h re2 $end
$var wire 1 . rst $end
$var wire 5 H" waddr [4:0] $end
$var wire 32 I" wdata [31:0] $end
$var wire 1 q we $end
$var reg 32 J" rdata1 [31:0] $end
$var reg 32 K" rdata2 [31:0] $end
$upscope $end
$scope module id_ex0 $end
$var wire 1 # clk $end
$var wire 8 L" id_aluop [7:0] $end
$var wire 3 M" id_alusel [2:0] $end
$var wire 12 N" id_immer [11:0] $end
$var wire 32 O" id_inst [31:0] $end
$var wire 1 J id_is_in_delayslot $end
$var wire 32 P" id_link_address [31:0] $end
$var wire 32 Q" id_reg1 [31:0] $end
$var wire 32 R" id_reg2 [31:0] $end
$var wire 5 S" id_wd [4:0] $end
$var wire 1 P id_wreg $end
$var wire 1 ] next_inst_in_delayslot_i $end
$var wire 1 . rst $end
$var wire 6 T" stall [5:0] $end
$var reg 8 U" ex_aluop [7:0] $end
$var reg 3 V" ex_alusel [2:0] $end
$var reg 12 W" ex_immer [11:0] $end
$var reg 32 X" ex_inst [31:0] $end
$var reg 1 Y" ex_is_in_delayslot $end
$var reg 32 Z" ex_link_address [31:0] $end
$var reg 32 [" ex_reg1 [31:0] $end
$var reg 32 \" ex_reg2 [31:0] $end
$var reg 5 ]" ex_wd [4:0] $end
$var reg 1 ^" ex_wreg $end
$var reg 1 _" is_in_delayslot_o $end
$upscope $end
$scope module ex0 $end
$var wire 8 `" aluop_i [7:0] $end
$var wire 8 a" aluop_o [7:0] $end
$var wire 3 b" alusel_i [2:0] $end
$var wire 12 c" immer [11:0] $end
$var wire 32 d" inst_i [31:0] $end
$var wire 1 : is_in_delayslot_i $end
$var wire 32 e" link_address_i [31:0] $end
$var wire 32 f" mem_addr_o [31:0] $end
$var wire 1 g" ov_sum $end
$var wire 32 h" reg1_i [31:0] $end
$var wire 32 i" reg1_i_not [31:0] $end
$var wire 1 j" reg1_lt_reg2 $end
$var wire 32 k" reg2_i [31:0] $end
$var wire 32 l" reg2_i_mux [31:0] $end
$var wire 32 m" reg2_o [31:0] $end
$var wire 32 n" result_sum [31:0] $end
$var wire 1 . rst $end
$var wire 5 o" wd_i [4:0] $end
$var wire 1 C wreg_i $end
$var reg 32 p" arithmeticres [31:0] $end
$var reg 32 q" logicout [31:0] $end
$var reg 32 r" shiftres [31:0] $end
$var reg 1 s" stallreq $end
$var reg 5 t" wd_o [4:0] $end
$var reg 32 u" wdata_o [31:0] $end
$var reg 1 v" wreg_o $end
$upscope $end
$scope module ex_mem0 $end
$var wire 1 # clk $end
$var wire 8 w" ex_aluop [7:0] $end
$var wire 32 x" ex_mem_addr [31:0] $end
$var wire 32 y" ex_reg2 [31:0] $end
$var wire 5 z" ex_wd [4:0] $end
$var wire 32 {" ex_wdata [31:0] $end
$var wire 1 D ex_wreg $end
$var wire 1 . rst $end
$var wire 6 |" stall [5:0] $end
$var reg 8 }" mem_aluop [7:0] $end
$var reg 32 ~" mem_mem_addr [31:0] $end
$var reg 32 !# mem_reg2 [31:0] $end
$var reg 5 "# mem_wd [4:0] $end
$var reg 32 ## mem_wdata [31:0] $end
$var reg 1 $# mem_wreg $end
$upscope $end
$scope module mem0 $end
$var wire 8 %# aluop_i [7:0] $end
$var wire 32 &# mem_addr_i [31:0] $end
$var wire 32 '# mem_data_i [31:0] $end
$var wire 1 5 mem_we_o $end
$var wire 32 (# reg2_i [31:0] $end
$var wire 1 . rst $end
$var wire 5 )# wd_i [4:0] $end
$var wire 32 *# wdata_i [31:0] $end
$var wire 1 [ wreg_i $end
$var wire 32 +# zero32 [31:0] $end
$var reg 32 ,# mem_addr_o [31:0] $end
$var reg 1 -# mem_ce_o $end
$var reg 32 .# mem_data_o [31:0] $end
$var reg 4 /# mem_sel_o [3:0] $end
$var reg 1 0# mem_we $end
$var reg 5 1# wd_o [4:0] $end
$var reg 32 2# wdata_o [31:0] $end
$var reg 1 3# wreg_o $end
$upscope $end
$scope module cache0 $end
$var wire 1 # clk $end
$var wire 32 4# mem_addr_i [31:0] $end
$var wire 1 1 mem_ce_i $end
$var wire 32 5# mem_data_i [31:0] $end
$var wire 4 6# mem_sel_i [3:0] $end
$var wire 1 5 mem_we_i $end
$var wire 32 7# ram_data_i [31:0] $end
$var wire 1 * ram_data_ready $end
$var wire 1 . rst $end
$var wire 1 8# set_select $end
$var wire 1 l stallreq $end
$var reg 63 9# cache0 [62:0] $end
$var reg 63 :# cache1 [62:0] $end
$var reg 63 ;# cache2 [62:0] $end
$var reg 63 <# cache3 [62:0] $end
$var reg 1 =# hit $end
$var reg 32 ># mem_data_o [31:0] $end
$var reg 32 ?# ram_addr_o [31:0] $end
$var reg 1 @# ram_ce_o $end
$var reg 32 A# ram_data_o [31:0] $end
$var reg 4 B# ram_sel_o [3:0] $end
$var reg 1 C# ram_we_o $end
$var reg 1 D# ready $end
$var reg 63 E# write_buffer [62:0] $end
$upscope $end
$scope module mem_wb0 $end
$var wire 1 # clk $end
$var wire 5 F# mem_wd [4:0] $end
$var wire 32 G# mem_wdata [31:0] $end
$var wire 1 \ mem_wreg $end
$var wire 1 . rst $end
$var wire 6 H# stall [5:0] $end
$var reg 5 I# wb_wd [4:0] $end
$var reg 32 J# wb_wdata [31:0] $end
$var reg 1 K# wb_wreg $end
$upscope $end
$scope module ctrl0 $end
$var wire 1 . rst $end
$var wire 1 l stallreq_from_cache $end
$var wire 1 m stallreq_from_ex $end
$var wire 1 n stallreq_from_id $end
$var reg 6 L# stall [5:0] $end
$upscope $end
$upscope $end
$scope module ram_rom0 $end
$var wire 32 M# ram_addr [31:0] $end
$var wire 1 ' ram_ce $end
$var wire 1 # ram_clk $end
$var wire 32 N# ram_data_i [31:0] $end
$var wire 4 O# ram_sel [3:0] $end
$var wire 1 , ram_we $end
$var wire 32 P# rom_addr [31:0] $end
$var wire 1 - rom_ce $end
$var reg 1 Q# data_ready $end
$var reg 32 R# ram_data_o [31:0] $end
$var reg 32 S# rom_inst [31:0] $end
$upscope $end
$upscope $end
$upscope $end
$enddefinitions $end
#0
$dumpvars
bx S#
b0 R#
xQ#
bx P#
b0 O#
b0 N#
b0 M#
b0 L#
xK#
bx J#
bx I#
b0 H#
b0 G#
b0 F#
bx E#
1D#
0C#
b0 B#
b0 A#
0@#
b0 ?#
b0 >#
0=#
bx <#
bx ;#
bx :#
bx 9#
08#
b0 7#
b0 6#
b0 5#
b0 4#
03#
b0 2#
b0 1#
00#
b0 /#
b0 .#
0-#
b0 ,#
b0 +#
bx *#
bx )#
bx (#
b0 '#
bx &#
bx %#
x$#
bx ##
bx "#
bx !#
bx ~"
bx }"
b0 |"
b0 {"
bx z"
bx y"
bx x"
bx w"
xv"
b0 u"
bx t"
xs"
b0 r"
b0 q"
b0 p"
bx o"
bx n"
bx m"
bx l"
bx k"
xj"
bx i"
bx h"
xg"
bx f"
bx e"
bx d"
bx c"
bx b"
bx a"
bx `"
x_"
x^"
bx ]"
bx \"
bx ["
bx Z"
xY"
bx X"
bx W"
bx V"
bx U"
b0 T"
b0 S"
b0 R"
b0 Q"
b0 P"
bx O"
bx N"
b0 M"
b0 L"
b0 K"
b0 J"
bx I"
bx H"
b0 G"
b0 F"
0E"
b0 D"
0C"
0B"
bx A"
0@"
b0 ?"
b0 >"
0="
b0 <"
b0 ;"
0:"
b0 9"
08"
07"
bx 6"
b0 5"
b0 4"
03"
b0 2"
b0 1"
b0 0"
b0 /"
x."
bx -"
bx ,"
bx +"
bx *"
bx )"
bx ("
bx '"
bx &"
bx %"
b0 $"
b0 #"
bx ""
bx !"
bx0 ~
b0 }
bx |
bx {
bx z
bx y
b0 x
bx w
bx v
bx u
xt
b0 s
b0 r
xq
bx p
bx o
0n
xm
0l
b0 k
bx j
bx i
0h
b0 g
b0 f
0e
b0 d
b0 c
b0 b
b0 a
b0 `
b0 _
bx ^
0]
0\
x[
b0 Z
bx Y
b0 X
bx W
bx V
bx U
bx T
xS
bx R
bx Q
0P
b0 O
b0 N
b0 M
bx L
b0 K
0J
bx I
bx H
0G
b0 F
b0 E
xD
xC
b0 B
bx A
bx @
bx ?
bx >
bx =
bx <
bx ;
x:
bx 9
bx 8
bx 7
bx 6
05
b0 4
b0 3
b0 2
01
b0 0
b0 /
1.
x-
0,
b0 +
x*
b0 )
b0 (
0'
b0 &
bx %
bx $
0#
1"
0!
$end
#10000
b0 S#
b0 $
b0 j
b0 v
0v"
0D
b0 t"
b0 A
b0 |
b0 z"
1D#
0l
0g"
b0 <
b0 f"
b0 x"
b0 n"
b0 l"
0."
b0 %"
b0 &"
b0 '"
b0 ("
b0 )"
b0 *"
b0 ~
b1000 -"
b100 ,"
b11111111111111111111111111111111 i"
0j"
0t
0-
b0 y
b0 I
b0 ""
b0 O"
b0 H
b0 !"
b0 z
b0 L
b0 +"
b0 X"
b0 9
b0 d"
0_"
0S
0Y"
0:
b0 Z"
b0 ;
b0 e"
0^"
0C
b0 ]"
b0 @
b0 o"
b0 \"
b0 ?
b0 m"
b0 y"
b0 >
b0 k"
b0 ["
b0 =
b0 h"
b0 V"
b0 8
b0 b"
b0 U"
b0 7
b0 {
b0 a"
b0 w"
b0 6
b0 `"
b0 !#
b0 V
b0 (#
b0 ~"
b0 U
b0 &#
b0 }"
b0 T
b0 %#
b0 ##
b0 Y
b0 *#
0$#
0[
b0 "#
b0 W
b0 )#
b0 <#
b0 ;#
b0 :#
b0 9#
b0 E#
b0 J#
b0 p
b0 I"
0K#
0q
b0 I#
b0 o
b0 H"
1!
1#
#20000
0!
0#
#30000
b0 u
b0 ^
b0 w
b0 %
b0 i
b0 P#
1!
1#
#40000
0!
0#
#50000
1!
1#
#60000
0!
0#
#70000
1!
1#
#80000
0!
0#
#90000
1!
1#
#95000
1D#
0l
b1111 /#
b1111 4
b1111 6#
17"
0"
0.
#100000
0!
0#
#110000
b10000000000000000000100110111 S#
b10000000000000000000100110111 $
b10000000000000000000100110111 j
b10000000000000000000100110111 v
1t
1-
1!
1#
#120000
0!
0#
#130000
b10000000000000000000000000000 ?"
b10000000000000000000000000000 N
b10000000000000000000000000000 R"
07"
b10000000000000000000000000000 5"
1="
1e
b1 2"
b1 F
b1 M"
b100101 1"
b100101 E
b100101 L"
1E"
1P
b1001010000000001000011101111 S#
b1001010000000001000011101111 $
b1001010000000001000011101111 j
b1001010000000001000011101111 v
b10 D"
b10 O
b10 S"
b110111 %"
b10 &"
b1000 *"
b100000010 ~
b100 u
b100 ^
b100 w
b100 %
b100 i
b100 P#
b10000000000000000000100110111 y
b10000000000000000000100110111 I
b10000000000000000000100110111 ""
b10000000000000000000100110111 O"
b10000000000000000000100110111 H
b10000000000000000000100110111 !"
1!
1#
#140000
0!
0#
#150000
b10000000000000000000000000000 u"
b10000000000000000000000000000 B
b10000000000000000000000000000 }
b10000000000000000000000000000 {"
b0 ?"
b0 N
b0 R"
1:"
1]
13"
1G
b1000010011000 4"
b1000010011000 /
b1000010011000 r
b1000 9"
b1000 K
b1000 P"
1v"
1D
b10 t"
b10 A
b10 |
b10 z"
b10000000000000000000000000000 q"
b0 5"
b10100 >"
b10100 f
b10100 G"
0="
0e
07"
1E"
1P
b1 D"
b1 O
b1 S"
b110 2"
b110 F
b110 M"
b1010000 1"
b1010000 E
b1010000 L"
b1111111100000000000000001111 S#
b1111111100000000000000001111 $
b1111111100000000000000001111 j
b1111111100000000000000001111 v
b100000010 <
b100000010 f"
b100000010 x"
b10000000000000000000000000000 n"
b10000000000000000000000000000 l"
1j"
b1101111 %"
b1 &"
b1 '"
b10100 )"
b100 *"
b100010000000 ~
b1100 -"
b1000 ,"
b10000000000000000000100110111 X"
b10000000000000000000100110111 9
b10000000000000000000100110111 d"
1^"
1C
b10 ]"
b10 @
b10 o"
b10000000000000000000000000000 \"
b10000000000000000000000000000 ?
b10000000000000000000000000000 m"
b10000000000000000000000000000 y"
b10000000000000000000000000000 >
b10000000000000000000000000000 k"
b1 V"
b1 8
b1 b"
b100101 U"
b100101 7
b100101 {
b100101 a"
b100101 w"
b100101 6
b100101 `"
b1001010000000001000011101111 y
b1001010000000001000011101111 I
b1001010000000001000011101111 ""
b1001010000000001000011101111 O"
b1001010000000001000011101111 H
b1001010000000001000011101111 !"
b100 z
b100 L
b100 +"
b1000 u
b1000 ^
b1000 w
b1000 %
b1000 i
b1000 P#
1!
1#
#160000
0!
0#
#170000
b1011110110111 S#
b1011110110111 $
b1011110110111 j
b1011110110111 v
0:"
0]
03"
0G
b0 4"
b0 /
b0 r
b0 9"
b0 K
b0 P"
b0 >"
b0 f
b0 G"
0E"
0P
b0 D"
b0 O
b0 S"
b0 2"
b0 F
b0 M"
b0 1"
b0 E
b0 L"
18"
1J
b1000 u"
b1000 B
b1000 }
b1000 {"
b1 t"
b1 A
b1 |
b1 z"
b0 q"
b10000000000000000000000000000 2#
b10000000000000000000000000000 Z
b10000000000000000000000000000 $"
b10000000000000000000000000000 G#
13#
1\
b10 1#
b10 X
b10 #"
b10 F#
b10000001 <
b10000001 f"
b10000001 x"
b0 n"
b0 l"
b1111 %"
b0 &"
b0 '"
b11111 )"
b111 *"
b11100000 ~
b10000 -"
b1100 ,"
0j"
b1000010011000 u
b1000010011000 ^
b1000010011000 w
b1000010011000 %
b1000010011000 i
b1000010011000 P#
b1111111100000000000000001111 y
b1111111100000000000000001111 I
b1111111100000000000000001111 ""
b1111111100000000000000001111 O"
b1111111100000000000000001111 H
b1111111100000000000000001111 !"
b1000 z
b1000 L
b1000 +"
b1001010000000001000011101111 X"
b1001010000000001000011101111 9
b1001010000000001000011101111 d"
1_"
1S
b1000 Z"
b1000 ;
b1000 e"
b1 ]"
b1 @
b1 o"
b0 \"
b0 ?
b0 m"
b0 y"
b0 >
b0 k"
b110 V"
b110 8
b110 b"
b1010000 U"
b1010000 7
b1010000 {
b1010000 a"
b1010000 w"
b1010000 6
b1010000 `"
b10000000000000000000000000000 !#
b10000000000000000000000000000 V
b10000000000000000000000000000 (#
b100000010 ~"
b100000010 U
b100000010 &#
b100101 }"
b100101 T
b100101 %#
b10000000000000000000000000000 ##
b10000000000000000000000000000 Y
b10000000000000000000000000000 *#
1$#
1[
b10 "#
b10 W
b10 )#
1!
1#
#180000
0!
0#
#190000
b1000000000000 ?"
b1000000000000 N
b1000000000000 R"
b1000000000000 5"
1="
1e
b1 2"
b1 F
b1 M"
b100101 1"
b100101 E
b100101 L"
1E"
1P
b1000 2#
b1000 Z
b1000 $"
b1000 G#
b1 1#
b1 X
b1 #"
b1 F#
08"
0J
b0 u"
b0 B
b0 }
b0 {"
0v"
0D
b0 t"
b0 A
b0 |
b0 z"
07"
b1111 D"
b1111 O
b1111 S"
b1100010001111000011110010011 S#
b1100010001111000011110010011 $
b1100010001111000011110010011 j
b1100010001111000011110010011 v
b11111111 <
b11111111 f"
b11111111 x"
b110111 %"
b1111 &"
b1 '"
b0 )"
b0 *"
b100000001110 ~
b1000010100000 -"
b1000010011100 ,"
b10000000000000000000000000000 J#
b10000000000000000000000000000 p
b10000000000000000000000000000 I"
1K#
1q
b10 I#
b10 o
b10 H"
b0 !#
b0 V
b0 (#
b10000001 ~"
b10000001 U
b10000001 &#
b1010000 }"
b1010000 T
b1010000 %#
b1000 ##
b1000 Y
b1000 *#
b1 "#
b1 W
b1 )#
b1111111100000000000000001111 X"
b1111111100000000000000001111 9
b1111111100000000000000001111 d"
0_"
0S
1Y"
1:
b0 Z"
b0 ;
b0 e"
0^"
0C
b0 ]"
b0 @
b0 o"
b0 V"
b0 8
b0 b"
b0 U"
b0 7
b0 {
b0 a"
b0 w"
b0 6
b0 `"
b1011110110111 y
b1011110110111 I
b1011110110111 ""
b1011110110111 O"
b1011110110111 H
b1011110110111 !"
b1000010011000 z
b1000010011000 L
b1000010011000 +"
b1000010011100 u
b1000010011100 ^
b1000010011100 w
b1000010011100 %
b1000010011100 i
b1000010011100 P#
1!
1#
#200000
0!
0#
#210000
b1000000000000 <"
b1000000000000 M
b1000000000000 Q"
bx J"
bx d
bx /"
b1000000000000 u"
b1000000000000 B
b1000000000000 }
b1000000000000 {"
b11000100 ?"
b11000100 N
b11000100 R"
b100100000000000011100010011 S#
b100100000000000011100010011 $
b100100000000000011100010011 j
b100100000000000011100010011 v
b11000100 5"
b100 >"
b100 f
b100 G"
b1111 ;"
b1111 c
b1111 F"
1="
1e
07"
1E"
1P
b100 2"
b100 F
b100 M"
b100000 1"
b100000 E
b100000 L"
1v"
1D
b1111 t"
b1111 A
b1111 |
b1111 z"
b1000000000000 q"
b0 2#
b0 Z
b0 $"
b0 G#
03#
0\
b0 1#
b0 X
b0 #"
b0 F#
b1111 <
b1111 f"
b1111 x"
b1000000000000 n"
b1000000000000 l"
b10011 %"
b0 '"
b1111 ("
b100 )"
b110 *"
b100011001110 ~
b1000010100100 -"
b1000010100000 ,"
1j"
b1000010100000 u
b1000010100000 ^
b1000010100000 w
b1000010100000 %
b1000010100000 i
b1000010100000 P#
b1100010001111000011110010011 y
b1100010001111000011110010011 I
b1100010001111000011110010011 ""
b1100010001111000011110010011 O"
b1100010001111000011110010011 H
b1100010001111000011110010011 !"
b1000010011100 z
b1000010011100 L
b1000010011100 +"
b1011110110111 X"
b1011110110111 9
b1011110110111 d"
0Y"
0:
1^"
1C
b1111 ]"
b1111 @
b1111 o"
b1000000000000 \"
b1000000000000 ?
b1000000000000 m"
b1000000000000 y"
b1000000000000 >
b1000000000000 k"
b1 V"
b1 8
b1 b"
b100101 U"
b100101 7
b100101 {
b100101 a"
b100101 w"
b100101 6
b100101 `"
b11111111 ~"
b11111111 U
b11111111 &#
b0 }"
b0 T
b0 %#
b0 ##
b0 Y
b0 *#
0$#
0[
b0 "#
b0 W
b0 )#
b1000 J#
b1000 p
b1000 I"
b1 I#
b1 o
b1 H"
1!
1#
#220000
0!
0#
#230000
b1001000 ?"
b1001000 N
b1001000 R"
b0 J"
b0 d
b0 /"
b0 <"
b0 M
b0 Q"
b1000000000000 2#
b1000000000000 Z
b1000000000000 $"
b1000000000000 G#
13#
1\
b1111 1#
b1111 X
b1111 #"
b1111 F#
b1000011000100 u"
b1000011000100 B
b1000011000100 }
b1000011000100 {"
b1000011000100 p"
b0 q"
b1001000 5"
b1000 >"
b1000 f
b1000 G"
b0 ;"
b0 c
b0 F"
1="
1e
07"
1E"
1P
b1110 D"
b1110 O
b1110 S"
b100 2"
b100 F
b100 M"
b100000 1"
b100000 E
b100000 L"
b10000111000000000001000100011 S#
b10000111000000000001000100011 $
b10000111000000000001000100011 j
b10000111000000000001000100011 v
b11000100 l"
b11111111111111111110111111111111 i"
b1000011000100 <
b1000011000100 f"
b1000011000100 x"
0j"
b1110 &"
b0 ("
b1000 )"
b10 *"
b1001110 ~
b1000010101000 -"
b1000010100100 ,"
b0 J#
b0 p
b0 I"
0K#
0q
b0 I#
b0 o
b0 H"
b1000000000000 !#
b1000000000000 V
b1000000000000 (#
b1111 ~"
b1111 U
b1111 &#
b100101 }"
b100101 T
b100101 %#
b1000000000000 ##
b1000000000000 Y
b1000000000000 *#
1$#
1[
b1111 "#
b1111 W
b1111 )#
b1100010001111000011110010011 X"
b1100010001111000011110010011 9
b1100010001111000011110010011 d"
b11000100 \"
b11000100 ?
b11000100 m"
b11000100 y"
b11000100 >
b11000100 k"
b1000000000000 ["
b1000011000100 n"
b1000000000000 =
b1000000000000 h"
b100 V"
b100 8
b100 b"
b100000 U"
b100000 7
b100000 {
b100000 a"
b100000 w"
b100000 6
b100000 `"
b100100000000000011100010011 y
b100100000000000011100010011 I
b100100000000000011100010011 ""
b100100000000000011100010011 O"
b100100000000000011100010011 H
b100100000000000011100010011 !"
b1000010100000 z
b1000010100000 L
b1000010100000 +"
b1000010100100 u
b1000010100100 ^
b1000010100100 w
b1000010100100 %
b1000010100100 i
b1000010100100 P#
1!
1#
#240000
0!
0#
#250000
bx K"
bx g
bx 0"
b1001000 u"
b1001000 B
b1001000 }
b1001000 {"
b1001000 ?"
b1001000 N
b1001000 R"
1@"
1h
b100000100 6"
b100000100 Q
b100000100 N"
b101111000011110010011 S#
b101111000011110010011 $
b101111000011110010011 j
b101111000011110010011 v
b0 5"
b1110 >"
b1110 f
b1110 G"
1="
1e
07"
0E"
0P
b100 D"
b100 O
b100 S"
b111 2"
b111 F
b111 M"
b11101000 1"
b11101000 E
b11101000 L"
b1110 t"
b1110 A
b1110 |
b1110 z"
b1001000 p"
b1000011000100 2#
b1000011000100 Z
b1000011000100 $"
b1000011000100 G#
b1001000 l"
b100011 %"
b100 &"
b1110 )"
b1000 *"
b100000100 ~
b1000010101100 -"
b1000010101000 ,"
b11111111111111111111111111111111 i"
b1001000 <
b1001000 f"
b1001000 x"
1j"
b1000010101000 u
b1000010101000 ^
b1000010101000 w
b1000010101000 %
b1000010101000 i
b1000010101000 P#
b10000111000000000001000100011 y
b10000111000000000001000100011 I
b10000111000000000001000100011 ""
b10000111000000000001000100011 O"
b10000111000000000001000100011 H
b10000111000000000001000100011 !"
b1000010100100 z
b1000010100100 L
b1000010100100 +"
b100100000000000011100010011 X"
b100100000000000011100010011 9
b100100000000000011100010011 d"
b1110 ]"
b1110 @
b1110 o"
b1001000 \"
b1001000 ?
b1001000 m"
b1001000 y"
b1001000 >
b1001000 k"
b0 ["
b1001000 n"
b0 =
b0 h"
b11000100 !#
b11000100 V
b11000100 (#
b1000011000100 ~"
b1000011000100 U
b1000011000100 &#
b100000 }"
b100000 T
b100000 %#
b1000011000100 ##
b1000011000100 Y
b1000011000100 *#
b1000000000000 J#
b1000000000000 p
b1000000000000 I"
1K#
1q
b1111 I#
b1111 o
b1111 H"
1!
1#
#260000
0!
0#
